{
    "data": [
        {
            "Bank": "ABN AMRO BANK N.V.",
            "City": "Dubai",
            "Branch Name": "International Private Clients Department",
            "SwiftCode": "ABNAAEAAIPC"
        },
        {
            "Bank": "Abn Amro Bank N.V.",
            "City": "Dubai",
            "Branch Name": " Dubai Intl Financial Center 2567 Dubai",
            "SwiftCode": "ABNAAEAAXXX"
        },
        {
            "Bank": "Abu Dhabi Commercial Bank",
            "City": "Abu Dhabi",
            "Branch Name": "Finance Departement",
            "SwiftCode": "ADCBAEAAFIN"
        },
        {
            "Bank": "Abu Dhabi Commercial Bank",
            "City": "Abu Dhabi",
            "Branch Name": "RBS",
            "SwiftCode": "ADCBAEAAREM"
        },
        {
            "Bank": "Abu Dhabi Commercial Bank",
            "City": "Abu Dhabi",
            "Branch Name": "Treasury Settlements",
            "SwiftCode": "ADCBAEAATRY"
        },
        {
            "Bank": "Abu Dhabi Commercial Bank",
            "City": "Abu Dhabi",
            "Branch Name": "Head Office",
            "SwiftCode": "ADCBAEAAXXX"
        },
        {
            "Bank": "Abu Dhabi Commercial Bank",
            "City": "Dubai",
            "Branch Name": "Dubai Trade Finance",
            "SwiftCode": "ADCBAEAA060"
        },
        {
            "Bank": "Abu Dhabi Commercial Bank",
            "City": "Abu Dhabi",
            "Branch Name": "Cash Management Department",
            "SwiftCode": "ADCBAEAACMD"
        },
        {
            "Bank": "Abu Dhabi Fund For Development",
            "City": "Abu Dhabi",
            "Branch Name": "Head Office",
            "SwiftCode": "ADFDAEAAXXX"
        },
        {
            "Bank": "Abu Dhabi Islamic Bank",
            "City": "Abu Dhabi",
            "Branch Name": "Head Office",
            "SwiftCode": "ABDIAEADXXX"
        },
        {
            "Bank": "Ajman Bank Pjsc",
            "City": " Ajman",
            "Branch Name": "Head Office",
            "SwiftCode": "AJMNAEAJXXX"
        },
        {
            "Bank": "Al Ahli Bank Of Kuwait.K.S.C.",
            "City": "Abu Dhabi",
            "Branch Name": "Head Office",
            "SwiftCode": "ABKKAEAAXXX"
        },
        {
            "Bank": "Al Fardan Exchange",
            "City": "Abu Dhabi",
            "Branch Name": "Head Office",
            "SwiftCode": "FEXEAEAAXXX"
        },
        {
            "Bank": "Al Hilal Bank",
            "City": "Abu Dhabi",
            "Branch Name": "Head Office",
            "SwiftCode": "HLALAEAAXXX"
        },
        {
            "Bank": "Al Khaliji France S.A.",
            "City": "Dubai",
            "Branch Name": "Head Office",
            "SwiftCode": "LICOAEADXXX"
        },
        {
            "Bank": "Al Mal Capital Psc",
            "City": "Dubai",
            "Branch Name": "Head Office",
            "SwiftCode": "AMCXAEAAXXX"
        },
        {
            "Bank": "Al Rostamani International Exchange",
            "City": "Dubai",
            "Branch Name": "Head Office",
            "SwiftCode": "TCARAEADXXX"
        },
        {
            "Bank": "Alahli Bank Of Kuwait",
            "City": "Dubai",
            "Branch Name": "Head Office",
            "SwiftCode": "ABKKAEADXXX"
        },
        {
            "Bank": "Alfuad Exchange",
            "City": "Dubai",
            "Branch Name": "Head Office",
            "SwiftCode": "ALFXAEADXXX"
        },
        {
            "Bank": "Arab African International Bank",
            "City": "Abu Dhabi",
            "Branch Name": "Abu Dhabi",
            "SwiftCode": "ARAIAEADAUH"
        },
        {
            "Bank": "Arab African International Bank",
            "City": "Dubai",
            "Branch Name": "Head Office",
            "SwiftCode": "ARAIAEADXXX"
        },
        {
            "Bank": "Arab Bank For Investment And Foreign Trade",
            "City": "Abu Dhabi",
            "Branch Name": "Al-Souk",
            "SwiftCode": "ABINAEAASUK"
        },
        {
            "Bank": "Arab Bank For Investment And Foreign Trade",
            "City": "Abu Dhabi",
            "Branch Name": "Head Office",
            "SwiftCode": "ABINAEAAXXX"
        },
        {
            "Bank": "Arab Bank For Investment And Foreign Trade",
            "City": "Al Ain",
            "Branch Name": "Al Ain",
            "SwiftCode": "ABINAEAAAIN"
        },
        {
            "Bank": "Arab Bank For Investment And Foreign Trade",
            "City": "Dubai",
            "Branch Name": "Dubai",
            "SwiftCode": "ABINAEAADXB"
        },
        {
            "Bank": "Arab Bank Plc",
            "City": "Abu Dhabi",
            "Branch Name": "Uae Branches Center",
            "SwiftCode": "ARABAEADABC"
        },
        {
            "Bank": "Arab Bank Plc",
            "City": "Ajman",
            "Branch Name": "Ajman",
            "SwiftCode": "ARABAEADAJM"
        },
        {
            "Bank": "Arab Bank Plc",
            "City": "Al Ain",
            "Branch Name": "AI Ain",
            "SwiftCode": "ARABAEADAIN"
        },
        {
            "Bank": "Arab Bank Plc",
            "City": "Dubai",
            "Branch Name": "Central Transfers Unit",
            "SwiftCode": "ARABAEADCTU"
        },
        {
            "Bank": "Arab Bank Plc",
            "City": "Dubai",
            "Branch Name": "Deira",
            "SwiftCode": "ARABAEADDER"
        },
        {
            "Bank": "Arab Bank Plc",
            "City": "Dubai",
            "Branch Name": "Dubai",
            "SwiftCode": "ARABAEADMAK"
        },
        {
            "Bank": "Arab Bank Plc",
            "City": "Dubai",
            "Branch Name": "Foreign Trade Cente",
            "SwiftCode": "ARABAEADFTC"
        },
        {
            "Bank": "Arab Bank Plc",
            "City": "Dubai",
            "Branch Name": "Head Office",
            "SwiftCode": "ARABAEADXXX"
        },
        {
            "Bank": "Arab Bank Plc",
            "City": "Fujairah",
            "Branch Name": "Fujairah",
            "SwiftCode": "ARABAEADFUJ"
        },
        {
            "Bank": "Arab Bank Plc",
            "City": "Ras Al Khaimah",
            "Branch Name": "Ras Al Khaimah",
            "SwiftCode": "ARABAEADRAK"
        },
        {
            "Bank": "Arab Bank Plc",
            "City": "Sharjah",
            "Branch Name": "Sharjah",
            "SwiftCode": "ARABAEADSHJ"
        },
        {
            "Bank": "Arab Monetary Fund ",
            "City": "Abu Dhabi",
            "Branch Name": "Head Office",
            "SwiftCode": "ARMFAEAAXXX"
        },
        {
            "Bank": "Arqaam Capital Limited",
            "City": "Dubai",
            "Branch Name": "Head Office",
            "SwiftCode": "ARQMAEADXXX"
        },
        {
            "Bank": "Axis Bank Limited",
            "City": "Dubai",
            "Branch Name": "Head Office",
            "SwiftCode": "UTIBAEA1XXX"
        },
        {
            "Bank": "Axis Bank Limited Difc",
            "City": "Dubai",
            "Branch Name": "Head Office",
            "SwiftCode": "AXISAEADXXX"
        },
        {
            "Bank": "Bank Of Baroda",
            "City": "Abu Dhabi",
            "Branch Name": "Abu Dhabi",
            "SwiftCode": "BARBAEADADH"
        },
        {
            "Bank": "Bank Of Baroda",
            "City": "Al Ain",
            "Branch Name": "Al Ain",
            "SwiftCode": "BARBAEADALN"
        },
        {
            "Bank": "Bank Of Baroda",
            "City": "Dubai",
            "Branch Name": "Deira",
            "SwiftCode": "BARBAEADDEI"
        },
        {
            "Bank": "Bank Of Baroda",
            "City": "Dubai",
            "Branch Name": "Dubai Main",
            "SwiftCode": "BARBAEADDUB"
        },
        {
            "Bank": "Bank Of Baroda",
            "City": "Dubai",
            "Branch Name": "Head Office",
            "SwiftCode": "BARBAEADXXX"
        },
        {
            "Bank": "Bank Of Baroda",
            "City": " Ras Al Khaimah",
            "Branch Name": "Ras Al Khaimah",
            "SwiftCode": "BARBAEADRAK"
        },
        {
            "Bank": "Bank Of Baroda",
            "City": "Sharjah",
            "Branch Name": "Sharjah",
            "SwiftCode": "BARBAEADSHJ"
        },
        {
            "Bank": "Bank Of Baroda",
            "City": "Dubai",
            "Branch Name": "Dubai International Financial Centre Difc Obu",
            "SwiftCode": "BARBAEADIFC"
        },
        {
            "Bank": "Bank Of Nova Scotia",
            "City": "Dubai",
            "Branch Name": "Head Office",
            "SwiftCode": "NOSCAEADXXX"
        },
        {
            "Bank": "Bank Of Sharjah The",
            "City": "Sharjah",
            "Branch Name": "Head Office",
            "SwiftCode": "SHARAEASXXX"
        },
        {
            "Bank": "Banque De Commerce Et De Placements Sa Difc Branch",
            "City": "Dubai",
            "Branch Name": "Head Office",
            "SwiftCode": "BPCPAEADXXX"
        },
        {
            "Bank": "Banque Misr",
            "City": "Abu Dhabi",
            "Branch Name": "Abu Dhabi",
            "SwiftCode": "BCAIAEAA802"
        },
        {
            "Bank": "Banque Misr",
            "City": "Abu Dhabi",
            "Branch Name": "Head Office",
            "SwiftCode": "BCAIAEAAXXX"
        },
        {
            "Bank": "Banque Misr",
            "City": "Al Ain",
            "Branch Name": "AI Ain",
            "SwiftCode": "BCAIAEAA806"
        },
        {
            "Bank": "Banque Misr",
            "City": "Dubai",
            "Branch Name": "Dubai",
            "SwiftCode": "BCAIAEAA803"
        },
        {
            "Bank": "Banque Misr",
            "City": "Ras Al Khaimah",
            "Branch Name": "Ras Elkhema",
            "SwiftCode": "BCAIAEAA805"
        },
        {
            "Bank": "Banque Misr",
            "City": "Sharjah",
            "Branch Name": "Sharjah",
            "SwiftCode": "BCAIAEAA804"
        },
        {
            "Bank": "Barclays Bank Plc",
            "City": "Abu Dhabi",
            "Branch Name": "Abu Dhabi",
            "SwiftCode": "BARCAEADABU"
        },
        {
            "Bank": "Barclays Bank Plc",
            "City": "Dubai",
            "Branch Name": "Head Office",
            "SwiftCode": "BARCAEADXXX"
        },
        {
            "Bank": "Blom Bank France S.A.",
            "City": "Dubai",
            "Branch Name": "Head Office",
            "SwiftCode": "BLOMAEADXXX"
        },
        {
            "Bank": "Bnp Paribas Abu Dhabi",
            "City": "Abu Dhabi",
            "Branch Name": "Head Office",
            "SwiftCode": "BNPAAEAAXXX"
        },
        {
            "Bank": "Bnp Paribas Dubai",
            "City": "Dubai",
            "Branch Name": "Head Office",
            "SwiftCode": "BNPAAEADXXX"
        },
        {
            "Bank": "Central Bank Of The U.A.E.",
            "City": "Abu Dhabi",
            "Branch Name": "Head Office",
            "SwiftCode": "CBAUAEAAXXX"
        },
        {
            "Bank": "Citibank N.A.",
            "City": "Dubai",
            "Branch Name": "Trade Services Dept",
            "SwiftCode": "CITIAEADTRD"
        },
        {
            "Bank": "Citibank N.A.",
            "City": "Dubai",
            "Branch Name": "Head Office",
            "SwiftCode": "CITIAEADXXX"
        },
        {
            "Bank": "Commercial Bank International",
            "City": "Abu Dhabi",
            "Branch Name": "Abu Dhabi",
            "SwiftCode": "CLBIAEADAD1"
        },
        {
            "Bank": "Commercial Bank International",
            "City": "Al Ain",
            "Branch Name": "AI Ain",
            "SwiftCode": "CLBIAEADAN1"
        },
        {
            "Bank": "Commercial Bank International",
            "City": "Dubai",
            "Branch Name": "Bur Dubai",
            "SwiftCode": "CLBIAEADDB1"
        },
        {
            "Bank": "Commercial Bank International",
            "City": "Dubai",
            "Branch Name": "Sheikh Zaid Road",
            "SwiftCode": "CLBIAEADDB2"
        },
        {
            "Bank": "Commercial Bank International",
            "City": "Dubai",
            "Branch Name": "Head Office",
            "SwiftCode": "CLBIAEADXXX"
        },
        {
            "Bank": "Commercial Bank International",
            "City": "Ras Al Khaimah",
            "Branch Name": "Al Manar Mall",
            "SwiftCode": "CLBIAEADRK2"
        },
        {
            "Bank": "Commercial Bank International",
            "City": "Sharjah",
            "Branch Name": "Sharjah",
            "SwiftCode": "CLBIAEADSH1"
        },
        {
            "Bank": "Commercial Bank International",
            "City": "Ras Al Khaimah",
            "Branch Name": "Ras AI Khaimah",
            "SwiftCode": "CLBIAEA10AR"
        },
        {
            "Bank": "Commercial Bank Of Dubai",
            "City": "Abu Dhabi",
            "Branch Name": "Abu Dhabi",
            "SwiftCode": "CBDUAEADADH"
        },
        {
            "Bank": "Commercial Bank Of Dubai",
            "City": "Ajman",
            "Branch Name": "Ajman",
            "SwiftCode": "CBDUAEADAJM"
        },
        {
            "Bank": "Commercial Bank Of Dubai",
            "City": "Al Ain",
            "Branch Name": "AI Ain",
            "SwiftCode": "CBDUAEADAIN"
        },
        {
            "Bank": "Commercial Bank Of Dubai",
            "City": "Dubai",
            "Branch Name": "Al Garhoud",
            "SwiftCode": "CBDUAEADGAR"
        },
        {
            "Bank": "Commercial Bank Of Dubai",
            "City": "Dubai",
            "Branch Name": "Al Maktoum St Branch",
            "SwiftCode": "CBDUAEADAMS"
        },
        {
            "Bank": "Commercial Bank Of Dubai",
            "City": "Dubai",
            "Branch Name": "Al Safa",
            "SwiftCode": "CBDUAEADSAF"
        },
        {
            "Bank": "Commercial Bank Of Dubai",
            "City": "Dubai",
            "Branch Name": "Deira",
            "SwiftCode": "CBDUAEADDER"
        },
        {
            "Bank": "Commercial Bank Of Dubai",
            "City": "Dubai",
            "Branch Name": "Dubai",
            "SwiftCode": "CBDUAEADDXB"
        },
        {
            "Bank": "Commercial Bank Of Dubai",
            "City": "Dubai",
            "Branch Name": "Jebel Ali",
            "SwiftCode": "CBDUAEADJAL"
        },
        {
            "Bank": "Commercial Bank Of Dubai",
            "City": " Dubai",
            "Branch Name": "Jumeirah",
            "SwiftCode": "CBDUAEADJUM"
        },
        {
            "Bank": "Commercial Bank Of Dubai",
            "City": "Ras Al Khaimah",
            "Branch Name": "Ras Al Khaimah",
            "SwiftCode": "CBDUAEADRAK"
        },
        {
            "Bank": "Commercial Bank Of Dubai",
            "City": "Dubai",
            "Branch Name": "Souq Al Wasl",
            "SwiftCode": "CBDUAEADSAW"
        },
        {
            "Bank": "Commercial Bank Of Dubai",
            "City": "Sharjah",
            "Branch Name": "Sharjah",
            "SwiftCode": "CBDUAEADSHJ"
        },
        {
            "Bank": "Commercial Bank Of Dubai",
            "City": "Dubai",
            "Branch Name": "Head Office",
            "SwiftCode": "CBDUAEADXXX"
        },
        {
            "Bank": "Credit Agricole Cib",
            "City": "Dubai",
            "Branch Name": "Head Office",
            "SwiftCode": "BSUIAEADXXX"
        },
        {
            "Bank": "Dbs Bank Ltd",
            "City": "Dubai",
            "Branch Name": "Head Office",
            "SwiftCode": "DBSSAEADXXX"
        },
        {
            "Bank": "Deutsche Bank Ag",
            "City": "Abu Dhabi",
            "Branch Name": "Head Office",
            "SwiftCode": "DEUTAEAAXXX"
        },
        {
            "Bank": "Deutsche Bank Ag",
            "City": "Dubai",
            "Branch Name": "Head Office",
            "SwiftCode": "DEUTAEADXXX"
        },
        {
            "Bank": "Emirates Investment Bank P.J.S.C.",
            "City": "Dubai",
            "Branch Name": "Head Office",
            "SwiftCode": "AEINAEADXXX"
        },
        {
            "Bank": "Habib Bank Ag Zurich",
            "City": "Dubai",
            "Branch Name": "Head Office",
            "SwiftCode": "HBZUAEADXXX"
        },
        {
            "Bank": "Habib Bank Limited",
            "City": "Abu Dhabi",
            "Branch Name": "Abu Dhabi",
            "SwiftCode": "HABBAEA10AA"
        },
        {
            "Bank": "Habib Bank Limited",
            "City": "Sharjah",
            "Branch Name": "Sharjah",
            "SwiftCode": "HABBAEA10AS"
        },
        {
            "Bank": "Habib Bank Limited",
            "City": "Dubai",
            "Branch Name": "Head Office",
            "SwiftCode": "HABBAEADXXX"
        },
        {
            "Bank": "Icici Bank Limited",
            "City": "Dubai",
            "Branch Name": "Central Operations",
            "SwiftCode": "ICICAEADCOP"
        },
        {
            "Bank": "Icici Bank Limited",
            "City": "Dubai",
            "Branch Name": "Global Trade Service Unit",
            "SwiftCode": "ICICAEADGTS"
        },
        {
            "Bank": "Icici Bank Limited",
            "City": "Dubai",
            "Branch Name": "Treasury",
            "SwiftCode": "ICICAEADTMO"
        },
        {
            "Bank": "Icici Bank Limited",
            "City": "Dubai",
            "Branch Name": "Head Office",
            "SwiftCode": "ICICAEADXXX"
        },
        {
            "Bank": "Intesa Sanpaolo Spa",
            "City": "Dubai",
            "Branch Name": "Head Office",
            "SwiftCode": "BCITAEADXXX"
        },
        {
            "Bank": "Lloyds Tsb Bank Plc",
            "City": "Dubai",
            "Branch Name": "Head Office",
            "SwiftCode": "LOYDAEADXXX"
        },
        {
            "Bank": "Merrill Lynch International",
            "City": "Dubai",
            "Branch Name": "Head Office",
            "SwiftCode": "MLINAEA1XXX"
        },
        {
            "Bank": "National Bank Of Abu Dhabi",
            "City": "Al Ain",
            "Branch Name": "AI Ain",
            "SwiftCode": "NBADAEAAAAM"
        },
        {
            "Bank": "National Bank Of Abu Dhabi",
            "City": "Sharjah",
            "Branch Name": "Al Bourj Avenue",
            "SwiftCode": "NBADAEAAABA"
        },
        {
            "Bank": "National Bank Of Abu Dhabi",
            "City": "Abu Dhabi",
            "Branch Name": "Arabian Gulf Office",
            "SwiftCode": "NBADAEAAAGO"
        },
        {
            "Bank": "National Bank Of Abu Dhabi",
            "City": "Abu Dhabi",
            "Branch Name": "International Airport",
            "SwiftCode": "NBADAEAAAIR"
        },
        {
            "Bank": "National Bank Of Abu Dhabi",
            "City": "Ajman",
            "Branch Name": "Ajman",
            "SwiftCode": "NBADAEAAAJM"
        },
        {
            "Bank": "National Bank Of Abu Dhabi",
            "City": "Al Ain",
            "Branch Name": "AI Ain",
            "SwiftCode": "NBADAEAAALN"
        },
        {
            "Bank": "National Bank Of Abu Dhabi",
            "City": "Abu Dhabi",
            "Branch Name": "Asset Management Group",
            "SwiftCode": "NBADAEAAAMG"
        },
        {
            "Bank": "National Bank Of Abu Dhabi",
            "City": "Abu Dhabi",
            "Branch Name": "Abu Dhabi Mall",
            "SwiftCode": "NBADAEAAAML"
        },
        {
            "Bank": "National Bank Of Abu Dhabi",
            "City": "Dubai",
            "Branch Name": "Al Qusais",
            "SwiftCode": "NBADAEAAAQB"
        },
        {
            "Bank": "National Bank Of Abu Dhabi",
            "City": "Al Ain",
            "Branch Name": "AI Sanaiya",
            "SwiftCode": "NBADAEAAASN"
        },
        {
            "Bank": "National Bank Of Abu Dhabi",
            "City": "Abu Dhabi",
            "Branch Name": "Baniyas",
            "SwiftCode": "NBADAEAABAN"
        },
        {
            "Bank": "National Bank Of Abu Dhabi",
            "City": "Abu Dhabi",
            "Branch Name": "Batin",
            "SwiftCode": "NBADAEAABAT"
        },
        {
            "Bank": "National Bank Of Abu Dhabi",
            "City": "Abu Dhabi",
            "Branch Name": "Between the Two Bridges",
            "SwiftCode": "NBADAEAABTB"
        },
        {
            "Bank": "National Bank Of Abu Dhabi",
            "City": "Al Ain",
            "Branch Name": "Al Ain Clock Tower",
            "SwiftCode": "NBADAEAACLO"
        },
        {
            "Bank": "National Bank Of Abu Dhabi",
            "City": "Abu Dhabi",
            "Branch Name": "Wholesale Operations Centre",
            "SwiftCode": "NBADAEAACOD"
        },
        {
            "Bank": "National Bank Of Abu Dhabi",
            "City": "Abu Dhabi",
            "Branch Name": "Collection Department",
            "SwiftCode": "NBADAEAACOL"
        },
        {
            "Bank": "National Bank Of Abu Dhabi",
            "City": "Abu Dhabi",
            "Branch Name": "Corniche",
            "SwiftCode": "NBADAEAACOR"
        },
        {
            "Bank": "National Bank Of Abu Dhabi",
            "City": "Abu Dhabi",
            "Branch Name": "Retail Operations Centre",
            "SwiftCode": "NBADAEAACPU"
        },
        {
            "Bank": "National Bank Of Abu Dhabi",
            "City": "Abu Dhabi",
            "Branch Name": "Card Centre",
            "SwiftCode": "NBADAEAACSU"
        },
        {
            "Bank": "National Bank Of Abu Dhabi",
            "City": "Abu Dhabi",
            "Branch Name": "Das Island",
            "SwiftCode": "NBADAEAADAS"
        },
        {
            "Bank": "Punjab National Bank",
            "City": "Dubai",
            "Branch Name": "Head Office",
            "SwiftCode": "PUNBAEADXXX"
        },
        {
            "Bank": "Royal Bank Of Canada",
            "City": "Dubai",
            "Branch Name": "Head Office",
            "SwiftCode": "ROYCAEA1XXX"
        },
        {
            "Bank": "Standard Chartered Bank",
            "City": "Abu Dhabi",
            "Branch Name": "Abu Dhabi",
            "SwiftCode": "SCBLAEADABD"
        },
        {
            "Bank": "Standard Chartered Bank",
            "City": "Dubai",
            "Branch Name": "Dubai International Financial Centr",
            "SwiftCode": "SCBLAEADDIF"
        },
        {
            "Bank": "Standard Chartered Bank",
            "City": "Dubai",
            "Branch Name": "Head Office",
            "SwiftCode": "SCBLAEADXXX"
        },
        {
            "Bank": "State Bank Of India",
            "City": "Dubai",
            "Branch Name": "Head Office",
            "SwiftCode": "SBINAEADXXX"
        },
        {
            "Bank": "The Royal Bank Of Scotland Plc United Arab Emirates",
            "City": "Abu Dhabi",
            "Branch Name": "Abu Dhabi",
            "SwiftCode": "ABNAAEADAUH"
        },
        {
            "Bank": "The Royal Bank Of Scotland Plc United Arab Emirates",
            "City": "Dubai",
            "Branch Name": "Dubai",
            "SwiftCode": "ABNAAEADSHJ"
        },
        {
            "Bank": "The Royal Bank Of Scotland Plc United Arab Emirates",
            "City": "Dubai",
            "Branch Name": "Head Office",
            "SwiftCode": "ABNAAEADXXX"
        },
        {
            "Bank": "Bank Of Tokyo-mitsubishi Ufj, Ltd.,",
            "City": "Abu Dhabi",
            "Branch Name": "Head Office",
            "SwiftCode": "BOTKAEAAXXX"
        },
        {
            "Bank": "Mashreqbank Psc.",
            "City": "Dubai",
            "Branch Name": "Fi-Customer Services",
            "SwiftCode": "BOMLAEADCSU"
        },
        {
            "Bank": "Mashreqbank Psc.",
            "City": "Dubai",
            "Branch Name": "Financial Institutions Division",
            "SwiftCode": "BOMLAEADEBC"
        },
        {
            "Bank": "Mashreqbank Psc.",
            "City": "Dubai",
            "Branch Name": "Foreign Trade Centre",
            "SwiftCode": "BOMLAEADFTC"
        },
        {
            "Bank": "Mashreqbank Psc.",
            "City": "Dubai",
            "Branch Name": "Head Office",
            "SwiftCode": "BOMLAEADHDO"
        },
        {
            "Bank": "Mashreqbank Psc.",
            "City": "Dubai",
            "Branch Name": "Remittances Centre",
            "SwiftCode": "BOMLAEADRAM"
        },
        {
            "Bank": "Mashreqbank Psc.",
            "City": "Dubai",
            "Branch Name": "Treasury and Investment Division",
            "SwiftCode": "BOMLAEADTID"
        },
        {
            "Bank": "Mashreqbank Psc.",
            "City": "Dubai",
            "Branch Name": "Head Office",
            "SwiftCode": "BOMLAEADXXX"
        },
        {
            "Bank": "National Bank Of Bahrain",
            "City": "Abu Dhabi",
            "Branch Name": "Head Office",
            "SwiftCode": "NBOBAEAAXXX"
        },
        {
            "Bank": "Citibank, N.a.",
            "City": "Dubai",
            "Branch Name": "Dubai",
            "SwiftCode": "CITIAEA10AD"
        },
        {
            "Bank": "Citibank, N.a.",
            "City": "Sharjah",
            "Branch Name": "Sharjah",
            "SwiftCode": "CITIAEA10AS"
        },
        {
            "Bank": "Citibank, N.a.",
            "City": "Dubai",
            "Branch Name": "Dubai",
            "SwiftCode": "CITIAEA1TRD"
        },
        {
            "Bank": "Citibank, N.a.",
            "City": "Abu Dhabi",
            "Branch Name": "Head Office",
            "SwiftCode": "CITIAEA1XXX"
        },
        {
            "Bank": "Investbank",
            "City": "Sharjah",
            "Branch Name": "Head Office",
            "SwiftCode": "IBTFAEASXXX"
        },
        {
            "Bank": "Doha Bank",
            "City": "Abu Dhabi",
            "Branch Name": "Bra",
            "SwiftCode": "DOHBAEADABU"
        },
        {
            "Bank": "Doha Bank",
            "City": "Dubai",
            "Branch Name": "Head Office",
            "SwiftCode": "DOHBAEADXXX"
        },
        {
            "Bank": "National Bank Of Oman",
            "City": "Abu Dhabi",
            "Branch Name": "Head Office",
            "SwiftCode": "NBOMAEADXXX"
        },
        {
            "Bank": "Hsbc Bank Middle East Limited",
            "City": "Abu Dhabi",
            "Branch Name": "Abu Dhabi",
            "SwiftCode": "BBMEAEADABU"
        },
        {
            "Bank": "Hsbc Bank Middle East Limited",
            "City": "Al Ain",
            "Branch Name": "Al Ain",
            "SwiftCode": "BBMEAEADALA"
        },
        {
            "Bank": "Hsbc Bank Middle East Limited",
            "City": "Dubai",
            "Branch Name": "Securities Brokerage",
            "SwiftCode": "BBMEAEADBDU"
        },
        {
            "Bank": "Hsbc Bank Middle East Limited",
            "City": "Dubai",
            "Branch Name": "Difc",
            "SwiftCode": "BBMEAEADDIF"
        },
        {
            "Bank": "Hsbc Bank Middle East Limited",
            "City": "Fujairah",
            "Branch Name": "Fujairah",
            "SwiftCode": "BBMEAEADFUJ"
        },
        {
            "Bank": "Hsbc Bank Middle East Limited",
            "City": "Ras Al Khaimah",
            "Branch Name": "Ras Al Khaimah",
            "SwiftCode": "BBMEAEADRKS"
        },
        {
            "Bank": "Hsbc Bank Middle East Limited",
            "City": "Sharjah",
            "Branch Name": "Sharjah",
            "SwiftCode": "BBMEAEADSHJ"
        },
        {
            "Bank": "Hsbc Bank Middle East Limited",
            "City": "Dubai",
            "Branch Name": "Head Office",
            "SwiftCode": "BBMEAEADXXX"
        },
        {
            "Bank": "Samba Financial Group",
            "City": "Dubai",
            "Branch Name": "Head Office",
            "SwiftCode": "SAMBAEADXXX"
        },
        {
            "Bank": "Abraaj Capital Limited",
            "City": "Dubai",
            "Branch Name": "Head Office",
            "SwiftCode": "ABPPAEA1XXX"
        },
        {
            "Bank": "Abu Dhabi Investment Council",
            "City": "Abu Dhabi",
            "Branch Name": "Head Office",
            "SwiftCode": "ADCNAEAAXXX"
        },
        {
            "Bank": "Abu Dhabi Retirment Pension And Benefits Fund",
            "City": "Abu Dhabi",
            "Branch Name": "Abu Dhabi",
            "SwiftCode": "ADPFAEAAXXX"
        },
        {
            "Bank": "Abu Dhabi Securities Market",
            "City": "Abu Dhabi",
            "Branch Name": "Head Office",
            "SwiftCode": "ADSEAEA1XXX"
        },
        {
            "Bank": "Ads Securities Llc",
            "City": "Abu Dhabi",
            "Branch Name": "Head Office",
            "SwiftCode": "ADSLAEADXXX"
        },
        {
            "Bank": "Agricultural Bank Of China Dubai Branch",
            "City": "Dubai",
            "Branch Name": "Head Office",
            "SwiftCode": "ABOCAEADXXX"
        },
        {
            "Bank": "Ahmed Al Hussain Money Exchange",
            "City": "Dubai",
            "Branch Name": "Head Office",
            "SwiftCode": "AAHUAEADXXX"
        },
        {
            "Bank": "Al Ansari Exchange Llc",
            "City": "Abu Dhabi",
            "Branch Name": "Head Office",
            "SwiftCode": "ALANAEAAXXX"
        },
        {
            "Bank": "Al Dahab Exchange",
            "City": "Dubai",
            "Branch Name": "Head Office",
            "SwiftCode": "DMTIAEAAXXX"
        },
        {
            "Bank": "Al Dhabi Investment Pjsc",
            "City": "Abu Dhabi",
            "Branch Name": "Abu Dhabi",
            "SwiftCode": "ALDHAEA1XXX"
        },
        {
            "Bank": "Al Fardan Exchange And Finance Co.",
            "City": "Abu Dhabi",
            "Branch Name": "Head Office",
            "SwiftCode": "ALFEAEA1XXX"
        },
        {
            "Bank": "Al Futtaim Hc Securities Company Llc",
            "City": "Dubai",
            "Branch Name": "Head Office",
            "SwiftCode": "FSCLAEA1XXX"
        },
        {
            "Bank": "Al Jarwan Exchange",
            "City": "Dubai",
            "Branch Name": "Head Office",
            "SwiftCode": "JAEXAEADXXX"
        },
        {
            "Bank": "Al Mal Securities Emirates",
            "City": "Dubai",
            "Branch Name": "Head Office",
            "SwiftCode": "AMSUAEA1XXX"
        },
        {
            "Bank": "Al Nahdi Exchange",
            "City": "Dubai",
            "Branch Name": "Head Office",
            "SwiftCode": "NAHDAEADXXX"
        },
        {
            "Bank": "Al Rasheed Exchange",
            "City": "Dubai",
            "Branch Name": "Head Office",
            "SwiftCode": "RDEXAEA1XXX"
        },
        {
            "Bank": "Al Rasheed Exchange",
            "City": "Dubai",
            "Branch Name": "Head Office",
            "SwiftCode": "RDEXAEADXXX"
        },
        {
            "Bank": "Alfa Exchange",
            "City": "Dubai",
            "Branch Name": "Head Office",
            "SwiftCode": "ALEHAEADXXX"
        },
        {
            "Bank": "Alfalah Exchange Company",
            "City": "Abu Dhabi",
            "Branch Name": "Head Office",
            "SwiftCode": "AFECAEAAXXX"
        },
        {
            "Bank": "Alramz Securities Co.",
            "City": "Abu Dhabi",
            "Branch Name": "Head Office",
            "SwiftCode": "ALRSAEA1XXX"
        },
        {
            "Bank": "Arab German International Broker Finance Brokers L.l.c.",
            "City": "Abu Dhabi",
            "Branch Name": "Head Office",
            "SwiftCode": "AGIOAEA1XXX"
        },
        {
            "Bank": "Arab Link Money Transfer",
            "City": "Abu Dhabi",
            "Branch Name": "Head Office",
            "SwiftCode": "ALNKAEADXXX"
        },
        {
            "Bank": "Arab Trade Financing Program",
            "City": "Abu Dhabi",
            "Branch Name": "Head Office",
            "SwiftCode": "ATFPAEADXXX"
        },
        {
            "Bank": "Arqaam Securities Llc",
            "City": "Dubai",
            "Branch Name": "Head Office",
            "SwiftCode": "ARQSAEA1XXX"
        },
        {
            "Bank": "Asia Pacific Banking Group Middle E ",
            "City": "Dubai",
            "Branch Name": "Head Office",
            "SwiftCode": "APGTAEA1XXX"
        },
        {
            "Bank": "Asia Pacific Financials Services Middle East Limited",
            "City": "Dubai",
            "Branch Name": "Head Office",
            "SwiftCode": "APFRAEA1XXX"
        },
        {
            "Bank": "Audi Volkswagen Middle East",
            "City": "Dubai",
            "SwiftCode": "AVMEAEA1XXX"
        },
        {
            "Bank": "Aziz Exchange Co Llc",
            "City": "Dubai",
            "Branch Name": "Head Office",
            "SwiftCode": "AZIZAEADXXX"
        },
        {
            "Bank": "Bank Of China Middle East(dubai) Limited",
            "City": "Dubai",
            "Branch Name": "Head Office",
            "SwiftCode": "BKCHAEADXXX"
        },
        {
            "Bank": "Bank Of The Arab Coast",
            "City": "Dubai",
            "Branch Name": "Head Office",
            "SwiftCode": "ARCOAEA1XXX"
        },
        {
            "Bank": "Bank Of Tokyo-mitsubishi Ufj, Ltd.,",
            "City": "Dubai",
            "Branch Name": "Head Office",
            "SwiftCode": "BOTKAEADXXX"
        },
        {
            "Bank": "Beltone Financial Securities-emirates",
            "City": "Dubai",
            "Branch Name": "Head Office",
            "SwiftCode": "BEFSAEA1XXX"
        },
        {
            "Bank": "Capital Union",
            "City": "Dubai",
            "Branch Name": "Head Office",
            "SwiftCode": "CPUNAEA1XXX"
        },
        {
            "Bank": "Central Depository",
            "City": "Dubai",
            "Branch Name": "Head Office",
            "SwiftCode": "CTDTAEA1XXX"
        },
        {
            "Bank": "China Construction Bank (dubai) Ltd",
            "City": "Dubai",
            "Branch Name": "Head Office",
            "SwiftCode": "PCBCAEADXXX"
        },
        {
            "Bank": "Commerzbank Ag Dubai Branch",
            "City": "Dubai",
            "Branch Name": "Head Office",
            "SwiftCode": "COBAAEADXXX"
        },
        {
            "Bank": "Credit Agricole Cheuvreux Middle East",
            "City": "Dubai",
            "Branch Name": "Head Office",
            "SwiftCode": "CACHAEA1XXX"
        },
        {
            "Bank": "Credit Agricole Cib (difc Branch, Regulated By Thedfsa",
            "City": "Dubai",
            "Branch Name": "Head Office",
            "SwiftCode": "BSUIAEAFXXX"
        },
        {
            "Bank": "Credit Europe Bank (dubai) Ltd",
            "City": "Dubai",
            "Branch Name": "Head Office",
            "SwiftCode": "FBHLAEADXXX"
        },
        {
            "Bank": "Dinar Exchange",
            "City": "Dubai",
            "Branch Name": "Head Office",
            "SwiftCode": "DNARAEADXXX"
        },
        {
            "Bank": "Direct Broker For Financial Service",
            "City": "Dubai",
            "Branch Name": "Head Office",
            "SwiftCode": "DBFSAEAAXXX"
        },
        {
            "Bank": "Dubai Bank Pjsc",
            "City": "Dubai",
            "Branch Name": "Head Office",
            "SwiftCode": "DBXPAEADXXX"
        },
        {
            "Bank": "Dubai Exchange Centre L.l.c.",
            "City": "Dubai",
            "Branch Name": "Head Office",
            "SwiftCode": "DEXEAEADXXX"
        },
        {
            "Bank": "Dubai Financial Market, Pjsc.",
            "City": "Dubai",
            "Branch Name": "Head Office",
            "SwiftCode": "DFMTAEA1XXX"
        },
        {
            "Bank": "Dubai Islamic Bank",
            "City": "Dubai",
            "Branch Name": "Direct Equities Operations",
            "SwiftCode": "DUIBAEADDEO"
        },
        {
            "Bank": "Dubai Islamic Bank",
            "City": "Dubai",
            "Branch Name": "Department Letters of Credit",
            "SwiftCode": "DUIBAEADLCS"
        },
        {
            "Bank": "Dubai Islamic Bank",
            "City": "Dubai",
            "Branch Name": "Treasury Department",
            "SwiftCode": "DUIBAEADTOS"
        },
        {
            "Bank": "Dubai Islamic Bank",
            "City": "Dubai",
            "Branch Name": "Head Office",
            "SwiftCode": "DUIBAEADXXX"
        },
        {
            "Bank": "Dubai, Fitch Ratings Ltd (dubai)",
            "City": "Dubai",
            "Branch Name": "Head Office",
            "SwiftCode": "FRIPAEA1XXX"
        },
        {
            "Bank": "Duet Mena Limited",
            "City": "Dubai",
            "Branch Name": "Head Office",
            "SwiftCode": "DUMNAEA1XXX"
        },
        {
            "Bank": "Economic Exchange Centre",
            "City": "Dubai",
            "Branch Name": "Head Office",
            "SwiftCode": "ECOXAEADXXX"
        },
        {
            "Bank": "Ed And F Man Professional Trading (dubai) Limited",
            "City": "Dubai",
            "Branch Name": "Head Office",
            "SwiftCode": "MPTDAEA1XXX"
        },
        {
            "Bank": "Efg-hermes Brokerage-uae Ltd.",
            "City": "Dubai",
            "Branch Name": "Head Office",
            "SwiftCode": "EFGHAEB1XXX"
        },
        {
            "Bank": "El-nilein Bank",
            "City": "Abu Dhabi",
            "Branch Name": "Head Office",
            "SwiftCode": "NILBAEAAXXX"
        },
        {
            "Bank": "Emaar Financial Services Llc",
            "City": "Dubai",
            "Branch Name": "Head Office",
            "SwiftCode": "EMFSAEA1XXX"
        },
        {
            "Bank": "Emirates Banks Association",
            "City": "Abu Dhabi",
            "Branch Name": "Head Office",
            "SwiftCode": "EMIBAEA1XXX"
        },
        {
            "Bank": "Emirates India International Exchange",
            "City": "Dubai",
            "Branch Name": "Head Office",
            "SwiftCode": "EINIAEA1XXX"
        },
        {
            "Bank": "Emirates India International Exchange Lpc",
            "City": "Dubai",
            "Branch Name": "Head Office",
            "SwiftCode": "EIIEAEADXXX"
        },
        {
            "Bank": "Emirates Islamic Bank",
            "City": "Abu Dhabi",
            "Branch Name": "Sh Rashid Street",
            "SwiftCode": "MEBLAEADADC"
        },
        {
            "Bank": "Emirates National Bank Ltd",
            "City": "Dubai",
            "Branch Name": "Head Office",
            "SwiftCode": "ENABAEA1XXX"
        },
        {
            "Bank": "Emirates Nbd Bank Pjsc",
            "City": "Abu Dhabi",
            "Branch Name": "Abu Dhabi",
            "SwiftCode": "EBILAEADADB"
        },
        {
            "Bank": "Emirates Nbd Bank Pjsc",
            "City": "Dubai",
            "Branch Name": "Al Maktoum Road",
            "SwiftCode": "EBILAEADAMR"
        },
        {
            "Bank": "Emirates Nbd Bank Pjsc",
            "City": "Dubai",
            "Branch Name": "Beniyas Square",
            "SwiftCode": "EBILAEADBSQ"
        },
        {
            "Bank": "Emirates Nbd Bank Pjsc",
            "City": "Dubai",
            "Branch Name": "Bander Taleb",
            "SwiftCode": "EBILAEADBTA"
        },
        {
            "Bank": "Emirates Nbd Bank Pjsc",
            "City": "Dubai",
            "Branch Name": "Dubai Main",
            "SwiftCode": "EBILAEADDMB"
        },
        {
            "Bank": "Emirates Nbd Bank Pjsc",
            "City": "Dubai",
            "Branch Name": "Group Head Office",
            "SwiftCode": "EBILAEADFIN"
        },
        {
            "Bank": "Emirates Nbd Bank Pjsc",
            "City": "Dubai",
            "Branch Name": "Galleria",
            "SwiftCode": "EBILAEADGAL"
        },
        {
            "Bank": "Emirates Nbd Bank Pjsc",
            "City": "Dubai",
            "Branch Name": "Jebel Ali",
            "SwiftCode": "EBILAEADJAZ"
        },
        {
            "Bank": "Emirates Nbd Bank Pjsc",
            "City": "Dubai",
            "Branch Name": "Jumeirah",
            "SwiftCode": "EBILAEADJUM"
        },
        {
            "Bank": "Emirates Nbd Bank Pjsc",
            "City": "Dubai",
            "Branch Name": "Karama ",
            "SwiftCode": "EBILAEADKAM"
        },
        {
            "Bank": "Emirates Nbd Bank Pjsc",
            "City": "Dubai",
            "Branch Name": "Qiyadah",
            "SwiftCode": "EBILAEADQID"
        },
        {
            "Bank": "Emirates Nbd Bank Pjsc",
            "City": "Dubai",
            "Branch Name": "Satwa",
            "SwiftCode": "EBILAEADSAT"
        },
        {
            "Bank": "Emirates Nbd Bank Pjsc",
            "City": "Dubai",
            "Branch Name": "Emirates Nbd Securities",
            "SwiftCode": "EBILAEADSEC"
        },
        {
            "Bank": "Emirates Nbd Bank Pjsc",
            "City": "Dubai",
            "Branch Name": "Al Souk",
            "SwiftCode": "EBILAEADSUK"
        },
        {
            "Bank": "Emirates Nbd Bank Pjsc",
            "City": "Dubai",
            "Branch Name": "Group Head Office",
            "SwiftCode": "EBILAEADTFS"
        },
        {
            "Bank": "Emirates Nbd Bank Pjsc",
            "City": "Dubai",
            "Branch Name": "Head Office",
            "SwiftCode": "EBILAEADXXX"
        },
        {
            "Bank": "Es Bankers Dubai Limited",
            "City": "Dubai",
            "Branch Name": "Head Office",
            "SwiftCode": "ESBDAEADXXX"
        },
        {
            "Bank": "Federal Exchange",
            "City": "Dubai",
            "Branch Name": "Head Office",
            "SwiftCode": "FEDXAEA1XXX"
        },
        {
            "Bank": "Federal Exchange",
            "City": "Dubai",
            "Branch Name": "Head Office",
            "SwiftCode": "FEDXAEAAXXX"
        },
        {
            "Bank": "Finance House P.j.s.c",
            "City": "Abu Dhabi",
            "Branch Name": "Head Office",
            "SwiftCode": "FHOUAEADXXX"
        },
        {
            "Bank": "First Gulf Bank",
            "City": "Abu Dhabi",
            "Branch Name": "Head Office",
            "SwiftCode": "FGBMAEAAXXX"
        },
        {
            "Bank": "First Gulf Financial Services ",
            "City": "Abu Dhabi",
            "Branch Name": "Head Office",
            "SwiftCode": "FGFEAEA1XXX"
        },
        {
            "Bank": "Gcc Exchange",
            "City": "Dubai",
            "Branch Name": "Head Office",
            "SwiftCode": "GCCEAEADXXX"
        },
        {
            "Bank": "Global Investment Bank Limited",
            "City": "Dubai",
            "Branch Name": "Head Office",
            "SwiftCode": "RIBBAEAAXXX"
        },
        {
            "Bank": "Gulf Express Exchange",
            "City": "Dubai",
            "Branch Name": "Head Office",
            "SwiftCode": "GUEEAEADXXX"
        },
        {
            "Bank": "Gulf Merchant Group Llp",
            "City": "Dubai",
            "Branch Name": "Head Office",
            "SwiftCode": "GMGLAEA1XXX"
        },
        {
            "Bank": "Habib Exchange Company L. L. C.",
            "City": "Abu Dhabi",
            "Branch Name": "Head Office",
            "SwiftCode": "HEXCAEAAXXX"
        },
        {
            "Bank": "Hinduja Bank (middle East) Ltd",
            "City": "Dubai",
            "Branch Name": "Head Office",
            "SwiftCode": "ABSGAEADXXX"
        },
        {
            "Bank": "Horizon Exchange",
            "City": "Dubai",
            "SwiftCode": "HREXAEADXXX"
        },
        {
            "Bank": "Horizon Exchange",
            "City": "Dubai",
            "Branch Name": "Head Office",
            "SwiftCode": "HREXAEA1XXX"
        },
        {
            "Bank": "Hsbc Financial Services (middle East) Limited",
            "City": "Dubai",
            "Branch Name": "Head Office",
            "SwiftCode": "WDMEAEA1XXX"
        },
        {
            "Bank": "Idbi Bank Ltd",
            "City": "Dubai",
            "Branch Name": "Head Office",
            "SwiftCode": "IBKLAEADXXX"
        },
        {
            "Bank": "Industrial And Commercial Bank Of China (middle East",
            "City": "Dubai",
            "Branch Name": "Head Office",
            "SwiftCode": "ICBKAEADXXX"
        },
        {
            "Bank": "Industrial And Commercial Bank Of China Limited-abu Dhabi Branch",
            "City": "Abu Dhabi",
            "Branch Name": "Head Office",
            "SwiftCode": "ICBKAEAAXXX"
        },
        {
            "Bank": "International Petroleum Investment Company",
            "City": "Abu Dhabi",
            "Branch Name": "Head Office",
            "SwiftCode": "IPIOAEA1XXX"
        },
        {
            "Bank": "Invest Ad",
            "City": "Abu Dhabi",
            "Branch Name": "Head Office",
            "SwiftCode": "ADICAEAAXXX"
        },
        {
            "Bank": "Ittihad International Investment L.l.c.",
            "City": "Abu Dhabi",
            "Branch Name": "Head Office",
            "SwiftCode": "IIICAEA1XXX"
        },
        {
            "Bank": "Janata Bank",
            "City": "Al Ain",
            "Branch Name": "AI Ain",
            "SwiftCode": "JANBAEAAALN"
        },
        {
            "Bank": "Janata Bank",
            "City": "Abu Dhabi",
            "Branch Name": "Abu Dhabi",
            "SwiftCode": "JANBAEAAAUH"
        },
        {
            "Bank": "Janata Bank",
            "City": "Dubai",
            "Branch Name": "Dubai",
            "SwiftCode": "JANBAEAADXB"
        },
        {
            "Bank": "Janata Bank",
            "City": "Sharjah",
            "Branch Name": "Sharjah",
            "SwiftCode": "JANBAEAASHJ"
        },
        {
            "Bank": "Janata Bank",
            "City": "Abu Dhabi",
            "Branch Name": "Head Office",
            "SwiftCode": "JANBAEAAXXX"
        },
        {
            "Bank": "Katota Investment Sector Fze",
            "City": "Ras Al Khaimah",
            "Branch Name": "Head Office",
            "SwiftCode": "KISFAEA1XXX"
        },
        {
            "Bank": "Kbc Aldini Capital Limited",
            "City": "Dubai",
            "Branch Name": "Head Office",
            "SwiftCode": "KBCKAEADXXX"
        },
        {
            "Bank": "Korea Exchange Bank Abudhabi Branch ",
            "City": "Abu Dhabi",
            "Branch Name": "Head Office",
            "SwiftCode": "KOEXAEADXXX"
        },
        {
            "Bank": "Kuwait Turkish Participation Bank ",
            "City": "Dubai",
            "Branch Name": "Head Office",
            "SwiftCode": "KTEFAEADXXX"
        },
        {
            "Bank": "Lari Exchange",
            "City": "Abu Dhabi",
            "Branch Name": "Head Office",
            "SwiftCode": "LAEEAEAAXXX"
        },
        {
            "Bank": "Louis Dreyfus Commodities Mea Trading Dmcc",
            "City": "Dubai",
            "Branch Name": "Head Office",
            "SwiftCode": "LDMEAEADXXX"
        },
        {
            "Bank": "Lulu International Exchange",
            "City": "Abu Dhabi",
            "Branch Name": "Head Office",
            "SwiftCode": "LULUAEADXXX"
        },
        {
            "Bank": "Mac Capital Limited",
            "City": "Dubai",
            "Branch Name": "Head Office",
            "SwiftCode": "MCCPAEA1XXX"
        },
        {
            "Bank": "Mac Sharaf Securities (uae) Llc.",
            "City": "Dubai",
            "Branch Name": "Head Office",
            "SwiftCode": "MSSUAEA1XXX"
        },
        {
            "Bank": "Makaseb Islamic Financial Services Llc",
            "City": "Abu Dhabi",
            "Branch Name": "Head Office",
            "SwiftCode": "MIFRAEA1XXX"
        },
        {
            "Bank": "Mashreq Securities Llc",
            "City": "Dubai",
            "Branch Name": "Head Office",
            "SwiftCode": "MSSLAEA1XXX"
        },
        {
            "Bank": "Mena Corp Financial Services Llc",
            "City": "Abu Dhabi",
            "SwiftCode": "MFELAEA1XXX"
        },
        {
            "Bank": "Middle East Financial Brokerage Company, L.l.c",
            "City": "Dubai",
            "Branch Name": "Head Office",
            "SwiftCode": "MFBCAEA1XXX"
        },
        {
            "Bank": "Ministry Of Energy",
            "City": "Dubai",
            "Branch Name": "Head Office",
            "SwiftCode": "MIEEAEA1XXX"
        },
        {
            "Bank": "Mirabaud (middle East) Limited",
            "City": "Dubai",
            "Branch Name": "Head Office",
            "SwiftCode": "MIRAAEADXXX"
        },
        {
            "Bank": "Multinet Trust Exchange",
            "City": "Dubai",
            "Branch Name": "Head Office",
            "SwiftCode": "MULXAEAEXXX"
        },
        {
            "Bank": "Multinet Trust Exchange",
            "City": "Dubai",
            "Branch Name": "Head Office",
            "SwiftCode": "MULXAEADXXX"
        },
        {
            "Bank": "Naeem Shares And Bonds",
            "City": "Dubai",
            "Branch Name": "Head Office",
            "SwiftCode": "NSHOAEA1XXX"
        },
        {
            "Bank": "Nasdaq Dubai Limited",
            "City": "Dubai",
            "Branch Name": "Head Office",
            "SwiftCode": "DIFXAEAAXXX"
        },
        {
            "Bank": "Nasim Al Barari Exchange",
            "City": "Dubai",
            "Branch Name": "Head Office",
            "SwiftCode": "NABEAEA1XXX"
        },
        {
            "Bank": "National Bank Of Abu Dhabi Head Office",
            "City": "Abu Dhabi",
            "Branch Name": "Aim/Poms Service",
            "SwiftCode": "NBADAEABXXX"
        },
        {
            "Bank": "National Bank Of Abu Dhabi Head Office",
            "City": "Abu Dhabi",
            "Branch Name": "Aim-Poms Service",
            "SwiftCode": "NBADAEB1XXX"
        },
        {
            "Bank": "National Bank Of Fujairah",
            "City": "Abu Dhabi",
            "Branch Name": "Abu Dhabi",
            "SwiftCode": "NBFUAEAFAUH"
        },
        {
            "Bank": "National Bank Of Fujairah",
            "City": "Dubai",
            "Branch Name": "Dubai",
            "SwiftCode": "NBFUAEAFDXB"
        },
        {
            "Bank": "National Bank Of Fujairah",
            "City": "Fujairah",
            "Branch Name": "Fujairah",
            "SwiftCode": "NBFUAEAFFUJ"
        },
        {
            "Bank": "National Bank Of Fujairah",
            "City": "Dubai",
            "Branch Name": "Jabel Ali",
            "SwiftCode": "NBFUAEAFJBA"
        },
        {
            "Bank": "National Bank Of Fujairah",
            "City": "Sharjah",
            "Branch Name": "Sharjah",
            "SwiftCode": "NBFUAEAFSHJ"
        },
        {
            "Bank": "National Bank Of Fujairah",
            "City": "Fujairah",
            "Branch Name": "Head Office",
            "SwiftCode": "NBFUAEAFXXX"
        },
        {
            "Bank": "National Bank Of Kuwait (s.a.k.).",
            "City": "Dubai",
            "Branch Name": "Head Office",
            "SwiftCode": "NBOKAEADXXX"
        },
        {
            "Bank": "National Bank Of Ras Al-khaimah, The",
            "City": "Ras Al Khaimah",
            "Branch Name": "Head Office",
            "SwiftCode": "NRAKAEAKXXX"
        },
        {
            "Bank": "National Bank Of Umm Al Qaiwain Psc.",
            "City": "Umm Al Qaiwain",
            "Branch Name": "Um Al Qaiwain Private Properties Building",
            "SwiftCode": "UMMQAEADFXD"
        },
        {
            "Bank": "National Bank Of Umm Al Qaiwain Psc.",
            "City": "Dubai",
            "Branch Name": "Head Office",
            "SwiftCode": "UMMQAEADXXX"
        },
        {
            "Bank": "National Investment And Securities Corp ",
            "City": "Abu Dhabi",
            "Branch Name": "Head Office",
            "SwiftCode": "INSNAEA1XXX"
        },
        {
            "Bank": "Natixis Dubai ",
            "City": "Dubai",
            "Branch Name": "Head Office",
            "SwiftCode": "NATXAEADXXX"
        },
        {
            "Bank": "Natixis Dubai ",
            "City": "Dubai",
            "Branch Name": "Head Office",
            "SwiftCode": "BFCEAEADXXX"
        },
        {
            "Bank": "Noor Islamic Bank",
            "City": "Dubai",
            "Branch Name": "Head Office",
            "SwiftCode": "NISLAEADXXX"
        },
        {
            "Bank": "Oasis Capital Limited",
            "City": "Dubai",
            "Branch Name": "Head Office",
            "SwiftCode": "OACAAEA1XXX"
        },
        {
            "Bank": "Oasis Crescent Capital (difc) Limited ",
            "City": "Dubai",
            "Branch Name": "Head Office",
            "SwiftCode": "OCCDAEA1XXX"
        },
        {
            "Bank": "Orient Exchange Co.(l.l.c.",
            "City": "Dubai",
            "Branch Name": "Head Office",
            "SwiftCode": "OECOAEADXXX"
        },
        {
            "Bank": "Prime Emirates L.l.c",
            "City": "Abu Dhabi",
            "Branch Name": "Head Office",
            "SwiftCode": "PRELAEA1XXX"
        },
        {
            "Bank": "Rasmala Investment Bank Ltd.",
            "City": "Dubai",
            "Branch Name": "Head Office",
            "SwiftCode": "RSMLAEADXXX"
        },
        {
            "Bank": "Redha Al Ansari Exchange",
            "City": "Dubai",
            "Branch Name": "Head Office",
            "SwiftCode": "RAECAEADXXX"
        },
        {
            "Bank": "Sajwani Exchange",
            "City": "Sharjah",
            "Branch Name": "Head Office",
            "SwiftCode": "SAJWAEADXXX"
        },
        {
            "Bank": "Samsung Gulf Electronics Co., Ltd.",
            "City": "Dubai",
            "Branch Name": "sge",
            "SwiftCode": "SECTAEA1710"
        },
        {
            "Bank": "Samsung Gulf Electronics Co., Ltd.",
            "City": "Dubai",
            "Branch Name": "Head Office",
            "SwiftCode": "SECTAEA1XXX"
        },
        {
            "Bank": "Sct Bankers",
            "City": "Dubai",
            "Branch Name": "Head Office",
            "SwiftCode": "SCTSAEA1XXX"
        },
        {
            "Bank": "Sharaf Exchange Llc",
            "City": "Dubai",
            "SwiftCode": "SHEXAEA1XXX"
        },
        {
            "Bank": "Sharaf Exchange Llc",
            "City": "Dubai",
            "Branch Name": "Head Office",
            "SwiftCode": "SHEXAEADXXX"
        },
        {
            "Bank": "Sharjah Islamic Bank ",
            "City": "Sharjah",
            "Branch Name": "Head Office",
            "SwiftCode": "NBSHAEASXXX"
        },
        {
            "Bank": "Shuaa Capital P.s.c.",
            "City": "Dubai",
            "Branch Name": "Head Office",
            "SwiftCode": "AGEIAEA1XXX"
        },
        {
            "Bank": "Shuaa Capital Psc",
            "City": "Dubai",
            "Branch Name": "Head Office",
            "SwiftCode": "SHCPAEADXXX"
        },
        {
            "Bank": "Smbc Dubai",
            "City": "Dubai",
            "Branch Name": "Head Office",
            "SwiftCode": "SMBCAEADXXX"
        },
        {
            "Bank": "Sorinet Comercial Trust",
            "City": "Dubai",
            "Branch Name": "Head Office",
            "SwiftCode": "SCERAEA1XXX"
        },
        {
            "Bank": "Swiss Investment Bank Plc",
            "City": "Dubai",
            "Branch Name": "Head Office",
            "SwiftCode": "FIWSAEA1XXX"
        },
        {
            "Bank": "Tabra And Al Nibal Exchange ",
            "City": "Dubai",
            "Branch Name": "Head Office",
            "SwiftCode": "TBRAAEA1XXX"
        },
        {
            "Bank": "U.a.e. Exchange Centre",
            "City": "Abu Dhabi",
            "Branch Name": "Head Office",
            "SwiftCode": "UAEXAEAAXXX"
        },
        {
            "Bank": "Union Bank Of India Difc Branch",
            "City": "Dubai",
            "Branch Name": "Head Office",
            "SwiftCode": "UBINAEADXXX"
        },
        {
            "Bank": "Union National Bank",
            "City": "Abu Dhabi",
            "Branch Name": "Salam Street",
            "SwiftCode": "UNBEAEAAQTR"
        },
        {
            "Bank": "Union National Bank",
            "City": "Abu Dhabi",
            "Branch Name": "Trade Finance Services Area",
            "SwiftCode": "UNBEAEAATFS"
        },
        {
            "Bank": "Union National Bank",
            "City": "Abu Dhabi",
            "Branch Name": "Head Office",
            "SwiftCode": "UNBEAEAAXXX"
        },
        {
            "Bank": "United Arab Bank ",
            "City": "Sharjah",
            "Branch Name": "Head Office",
            "SwiftCode": "UARBAEAAXXX"
        },
        {
            "Bank": "United Bank Ltd.",
            "City": "Dubai",
            "Branch Name": "UBL,Central Processing Unit",
            "SwiftCode": "UNILAEADCPU"
        },
        {
            "Bank": "United Bank Ltd.",
            "City": "Dubai",
            "Branch Name": "Ubl,Trade Finance Centre",
            "SwiftCode": "UNILAEADTFC"
        },
        {
            "Bank": "United Bank Ltd.",
            "City": "Dubai",
            "Branch Name": "Treasury Operations Dept",
            "SwiftCode": "UNILAEADTRY"
        },
        {
            "Bank": "United Bank Ltd.",
            "City": "Dubai",
            "Branch Name": "Head Office",
            "SwiftCode": "UNILAEADXXX"
        },
        {
            "Bank": "United Investment Bank",
            "City": "Dubai",
            "Branch Name": "Head Office",
            "SwiftCode": "UIBLAEA1XXX"
        },
        {
            "Bank": "Universal Exchange Center",
            "City": "Dubai",
            "Branch Name": "Head Office",
            "SwiftCode": "UECEAEADXXX"
        },
        {
            "Bank": "Wall Street Exchange Centre Llc",
            "City": "Dubai",
            "Branch Name": "Head Office",
            "SwiftCode": "WSEEAEADXXX"
        },
        {
            "Bank": "Zfp Equity Trading (dubai) Limited",
            "City": "Dubai",
            "Branch Name": "Head Office",
            "SwiftCode": "ZETDAEA1XXX"
        }
    ]
}